[{
  "_id": {
    "$oid": "5bfd996f7b8e48dc15ff215d"
  },
  "Name": "Tokyo Haneda Airport, Tokyo, Japan",
  "Latitude": 35.5533332824707,
  "Longitude": 139.78111267089844
},{
  "_id": {
    "$oid": "60a820968c2c9f424e36a59e"
  },
  "Name": "Nagoya Airport, Nagoya, Japan",
  "Latitude": 35.25579833984375,
  "Longitude": 136.92410278320312
},{
  "_id": {
    "$oid": "60c552a9853c4d21a7baebe3"
  },
  "Name": "Berlin Brandenburg Airport",
  "Latitude": 52.33332824707031,
  "Longitude": 13.50333023071289
},{
  "_id": {
    "$oid": "60c55323853c4d21a7baebe4"
  },
  "Name": "Warsaw Chopin Airport",
  "Latitude": 52.165828704833984,
  "Longitude": 20.967220306396484
},{
  "_id": {
    "$oid": "60c8861eb76a88e31d258152"
  },
  "Name": "John Paul II International Airport Kraków–Balice",
  "Latitude": 50.076171875,
  "Longitude": 19.79157066345215
},{
  "_id": {
    "$oid": "60c88655b76a88e31d258153"
  },
  "Name": "Paris Charles de Gaulle Airport",
  "Latitude": 49.00972366333008,
  "Longitude": 2.5477778911590576
},{
  "_id": {
    "$oid": "60c88685b76a88e31d258154"
  },
  "Name": "Oslo Airport",
  "Latitude": 60.19755172729492,
  "Longitude": 11.100415229797363
},{
  "_id": {
    "$oid": "60c886b5b76a88e31d258155"
  },
  "Name": "Alicante Airport",
  "Latitude": 38.28683090209961,
  "Longitude": -0.5572239756584167
},{
  "_id": {
    "$oid": "60c88761b76a88e31d258156"
  },
  "Name": "Frankfurt Airport",
  "Latitude": 50.03333282470703,
  "Longitude": 8.570555686950684
},{
  "_id": {
    "$oid": "60c8879db76a88e31d258157"
  },
  "Name": "Hong Kong International Airport",
  "Latitude": 22.308046340942383,
  "Longitude": 113.9184799194336
},{
  "_id": {
    "$oid": "60c887c4b76a88e31d258158"
  },
  "Name": "Seoul Incheon International Airport, Seoul, South Korea",
  "Latitude": 37.46333312988281,
  "Longitude": 126.44000244140625
},{
  "_id": {
    "$oid": "60c887e3b76a88e31d258159"
  },
  "Name": "Sabiha Gokcen Airport, Istanbul, Turkey",
  "Latitude": 40.89833450317383,
  "Longitude": 29.309167861938477
},{
  "_id": {
    "$oid": "60c8881ab76a88e31d25815a"
  },
  "Name": "John F. Kennedy International Airport, NY, USA",
  "Latitude": 40.64176559448242,
  "Longitude": -73.78096771240234
},{
  "_id": {
    "$oid": "60c88838b76a88e31d25815b"
  },
  "Name": "Airport Biysk, Biysk, Altai, Russia",
  "Latitude": 52.480010986328125,
  "Longitude": 85.34305572509766
},{
  "_id": {
    "$oid": "60c88852b76a88e31d25815c"
  },
  "Name": "Zurich Airport, Switzerland",
  "Latitude": 47.451541900634766,
  "Longitude": 8.56457233428955
},{
  "_id": {
    "$oid": "60c8885fb76a88e31d25815d"
  },
  "Name": "Zhuliany International Airport, Kyiv, Ukraine",
  "Latitude": 50.411197662353516,
  "Longitude": 30.44663429260254
}]